Eyner Roman - Mental Health in Tech: R Analysis for BetterHelp
…
library(tidyr)
clean_mh_2016_deconcat <- clean_mh_2016 %>%
  separate_rows(details_current_condition, sep = "\\|") %>%
  filter(!is.na(details_current_condition)) %>%
  mutate(details_current_condition = trimws(details_current_condition))
category_counts <- clean_mh_2016_deconcat %>%
  count(details_current_condition, sort = TRUE)
category_counts <- category_counts %>%
  mutate(Percentage = n / sum(n) * 100)
print(category_counts %>%
  rename("Past Diagnosed Mental Health Conditions" = details_current_condition,
         "Count" = n,
         "Percentage" = Percentage))

# A tibble: 26 × 3
   `Past Diagnosed Mental Health Conditions`                    Count Percentage
   <chr>                                                        <int>      <dbl>
 1 Mood Disorder (Depression, Bipolar Disorder, etc)              325      35.2 
 2 Anxiety Disorder (Generalized, Social, Phobia, etc)            272      29.4 
 3 Attention Deficit Hyperactivity Disorder                        93      10.1 
 4 Post-traumatic Stress Disorder                                  51       5.52
 5 Obsessive-Compulsive Disorder                                   36       3.90
 6 Substance Use Disorder                                          31       3.35
 7 Stress Response Syndromes                                       28       3.03
 8 Addictive Disorder                                              24       2.60
 9 Personality Disorder (Borderline, Antisocial, Paranoid, etc)    22       2.38
10 Eating Disorder (Anorexia, Bulimia, etc)                        19       2.06
# ℹ 16 more rows
…
library(tidyr)
clean_mh_2016_deconcat2 <- clean_mh_2016 %>%
  separate_rows(details_suspected_condition, sep = "\\|") %>%
  filter(!is.na(details_suspected_condition)) %>%
  mutate(details_suspected_condition = trimws(details_suspected_condition))
category_counts2 <- clean_mh_2016_deconcat2 %>%
  count(details_suspected_condition, sort = TRUE)
category_counts2 <- category_counts2 %>%
  mutate(Percentage = n / sum(n) * 100)
print(category_counts2 %>%
  rename("Suspected Mental Health Conditions" = details_suspected_condition,
         "Count" = n,
         "Percentage" = Percentage))

# A tibble: 21 × 3
   `Suspected Mental Health Conditions`                         Count Percentage
   <chr>                                                        <int>      <dbl>
 1 Mood Disorder (Depression, Bipolar Disorder, etc)              169      32.8 
 2 Anxiety Disorder (Generalized, Social, Phobia, etc)            149      28.9 
 3 Attention Deficit Hyperactivity Disorder                        42       8.14
 4 Personality Disorder (Borderline, Antisocial, Paranoid, etc)    29       5.62
 5 Stress Response Syndromes                                       28       5.43
 6 Obsessive-Compulsive Disorder                                   24       4.65
 7 Post-traumatic Stress Disorder                                  20       3.88
 8 Addictive Disorder                                              18       3.49
 9 Substance Use Disorder                                          12       2.33
10 Eating Disorder (Anorexia, Bulimia, etc)                         8       1.55
# ℹ 11 more rows
…
library(tidyr)
clean_mh_2016_deconcat3 <- clean_mh_2016 %>%
  separate_rows(details_mh_medical_diagnose, sep = "\\|") %>%
  filter(!is.na(details_mh_medical_diagnose)) %>%
  mutate(details_mh_medical_diagnose = trimws(details_mh_medical_diagnose))
category_counts3 <- clean_mh_2016_deconcat3 %>%
  count(details_mh_medical_diagnose, sort = TRUE)
category_counts3 <- category_counts3 %>%
  mutate(Percentage = n / sum(n) * 100)
print(category_counts3 %>%
  rename("MH Diagnose by Medical Professional" = details_mh_medical_diagnose,
         "Count" = n,
         "Percentage" = Percentage))

# A tibble: 27 × 3
   `MH Diagnose by Medical Professional`                        Count Percentage
   <chr>                                                        <int>      <dbl>
 1 Mood Disorder (Depression, Bipolar Disorder, etc)              417     41.3  
 2 Anxiety Disorder (Generalized, Social, Phobia, etc)            295     29.2  
 3 Attention Deficit Hyperactivity Disorder                       104     10.3  
 4 Post-traumatic Stress Disorder                                  53      5.25 
 5 Obsessive-Compulsive Disorder                                   33      3.27 
 6 Stress Response Syndromes                                       21      2.08 
 7 Personality Disorder (Borderline, Antisocial, Paranoid, etc)    20      1.98 
 8 Substance Use Disorder                                          18      1.78 
 9 Eating Disorder (Anorexia, Bulimia, etc)                        14      1.39 
10 Addictive Disorder                                              10      0.991
# ℹ 17 more rows
…
